[2017-10-15T15:45:47,313][INFO ][o.e.n.Node               ] [] initializing ...
[2017-10-15T15:45:47,738][INFO ][o.e.e.NodeEnvironment    ] [wsI3wue] using [1] data paths, mounts [[Acer (c:)]], net usable_space [652.6gb], net total_space [930.9gb], spins? [unknown], types [NTFS]
[2017-10-15T15:45:47,739][INFO ][o.e.e.NodeEnvironment    ] [wsI3wue] heap size [1.9gb], compressed ordinary object pointers [true]
[2017-10-15T15:45:47,751][INFO ][o.e.n.Node               ] node name [wsI3wue] derived from node ID [wsI3wueBTde8nDwh6uKV8w]; set [node.name] to override
[2017-10-15T15:45:47,751][INFO ][o.e.n.Node               ] version[5.6.2], pid[14148], build[57e20f3/2017-09-23T13:16:45.703Z], OS[Windows 10/10.0/amd64], JVM[Oracle Corporation/Java HotSpot(TM) 64-Bit Server VM/1.8.0_77/25.77-b03]
[2017-10-15T15:45:47,753][INFO ][o.e.n.Node               ] JVM arguments [-Xms2g, -Xmx2g, -XX:+UseConcMarkSweepGC, -XX:CMSInitiatingOccupancyFraction=75, -XX:+UseCMSInitiatingOccupancyOnly, -XX:+AlwaysPreTouch, -Xss1m, -Djava.awt.headless=true, -Dfile.encoding=UTF-8, -Djna.nosys=true, -Djdk.io.permissionsUseCanonicalPath=true, -Dio.netty.noUnsafe=true, -Dio.netty.noKeySetOptimization=true, -Dio.netty.recycler.maxCapacityPerThread=0, -Dlog4j.shutdownHookEnabled=false, -Dlog4j2.disable.jmx=true, -Dlog4j.skipJansi=true, -XX:+HeapDumpOnOutOfMemoryError, -Delasticsearch, -Des.path.home=c:\Thesis - Data Visualization\elasticsearch-5.6.2]
[2017-10-15T15:45:50,495][INFO ][o.e.p.PluginsService     ] [wsI3wue] loaded module [aggs-matrix-stats]
[2017-10-15T15:45:50,496][INFO ][o.e.p.PluginsService     ] [wsI3wue] loaded module [ingest-common]
[2017-10-15T15:45:50,498][INFO ][o.e.p.PluginsService     ] [wsI3wue] loaded module [lang-expression]
[2017-10-15T15:45:50,501][INFO ][o.e.p.PluginsService     ] [wsI3wue] loaded module [lang-groovy]
[2017-10-15T15:45:50,502][INFO ][o.e.p.PluginsService     ] [wsI3wue] loaded module [lang-mustache]
[2017-10-15T15:45:50,502][INFO ][o.e.p.PluginsService     ] [wsI3wue] loaded module [lang-painless]
[2017-10-15T15:45:50,504][INFO ][o.e.p.PluginsService     ] [wsI3wue] loaded module [parent-join]
[2017-10-15T15:45:50,504][INFO ][o.e.p.PluginsService     ] [wsI3wue] loaded module [percolator]
[2017-10-15T15:45:50,506][INFO ][o.e.p.PluginsService     ] [wsI3wue] loaded module [reindex]
[2017-10-15T15:45:50,512][INFO ][o.e.p.PluginsService     ] [wsI3wue] loaded module [transport-netty3]
[2017-10-15T15:45:50,513][INFO ][o.e.p.PluginsService     ] [wsI3wue] loaded module [transport-netty4]
[2017-10-15T15:45:50,515][INFO ][o.e.p.PluginsService     ] [wsI3wue] no plugins loaded
[2017-10-15T15:45:54,353][INFO ][o.e.d.DiscoveryModule    ] [wsI3wue] using discovery type [zen]
[2017-10-15T15:45:55,304][INFO ][o.e.n.Node               ] initialized
[2017-10-15T15:45:55,304][INFO ][o.e.n.Node               ] [wsI3wue] starting ...
[2017-10-15T15:45:56,356][INFO ][o.e.t.TransportService   ] [wsI3wue] publish_address {127.0.0.1:9300}, bound_addresses {127.0.0.1:9300}, {[::1]:9300}
[2017-10-15T15:45:59,524][INFO ][o.e.c.s.ClusterService   ] [wsI3wue] new_master {wsI3wue}{wsI3wueBTde8nDwh6uKV8w}{DB1FEqa9Rti0Af5JgTx_Ow}{127.0.0.1}{127.0.0.1:9300}, reason: zen-disco-elected-as-master ([0] nodes joined)
[2017-10-15T15:45:59,630][INFO ][o.e.g.GatewayService     ] [wsI3wue] recovered [0] indices into cluster_state
[2017-10-15T15:46:00,054][INFO ][o.e.h.n.Netty4HttpServerTransport] [wsI3wue] publish_address {127.0.0.1:9200}, bound_addresses {127.0.0.1:9200}, {[::1]:9200}
[2017-10-15T15:46:00,055][INFO ][o.e.n.Node               ] [wsI3wue] started
[2017-10-15T15:48:51,888][INFO ][o.e.b.Bootstrap          ] running graceful exit on windows
[2017-10-15T15:48:51,889][INFO ][o.e.n.Node               ] [wsI3wue] stopping ...
[2017-10-15T15:48:51,926][INFO ][o.e.n.Node               ] [wsI3wue] stopped
[2017-10-15T15:48:51,927][INFO ][o.e.n.Node               ] [wsI3wue] closing ...
[2017-10-15T15:48:51,940][INFO ][o.e.n.Node               ] [wsI3wue] closed
[2017-10-15T15:52:28,457][INFO ][o.e.n.Node               ] [] initializing ...
[2017-10-15T15:52:28,648][INFO ][o.e.e.NodeEnvironment    ] [wsI3wue] using [1] data paths, mounts [[Acer (c:)]], net usable_space [652.6gb], net total_space [930.9gb], spins? [unknown], types [NTFS]
[2017-10-15T15:52:28,649][INFO ][o.e.e.NodeEnvironment    ] [wsI3wue] heap size [1.9gb], compressed ordinary object pointers [true]
[2017-10-15T15:52:28,657][INFO ][o.e.n.Node               ] node name [wsI3wue] derived from node ID [wsI3wueBTde8nDwh6uKV8w]; set [node.name] to override
[2017-10-15T15:52:28,657][INFO ][o.e.n.Node               ] version[5.6.2], pid[8860], build[57e20f3/2017-09-23T13:16:45.703Z], OS[Windows 10/10.0/amd64], JVM[Oracle Corporation/Java HotSpot(TM) 64-Bit Server VM/1.8.0_77/25.77-b03]
[2017-10-15T15:52:28,658][INFO ][o.e.n.Node               ] JVM arguments [-Xms2g, -Xmx2g, -XX:+UseConcMarkSweepGC, -XX:CMSInitiatingOccupancyFraction=75, -XX:+UseCMSInitiatingOccupancyOnly, -XX:+AlwaysPreTouch, -Xss1m, -Djava.awt.headless=true, -Dfile.encoding=UTF-8, -Djna.nosys=true, -Djdk.io.permissionsUseCanonicalPath=true, -Dio.netty.noUnsafe=true, -Dio.netty.noKeySetOptimization=true, -Dio.netty.recycler.maxCapacityPerThread=0, -Dlog4j.shutdownHookEnabled=false, -Dlog4j2.disable.jmx=true, -Dlog4j.skipJansi=true, -XX:+HeapDumpOnOutOfMemoryError, -Delasticsearch, -Des.path.home=c:\Thesis - Data Visualization\elasticsearch-5.6.2]
[2017-10-15T15:52:31,343][INFO ][o.e.p.PluginsService     ] [wsI3wue] loaded module [aggs-matrix-stats]
[2017-10-15T15:52:31,344][INFO ][o.e.p.PluginsService     ] [wsI3wue] loaded module [ingest-common]
[2017-10-15T15:52:31,344][INFO ][o.e.p.PluginsService     ] [wsI3wue] loaded module [lang-expression]
[2017-10-15T15:52:31,346][INFO ][o.e.p.PluginsService     ] [wsI3wue] loaded module [lang-groovy]
[2017-10-15T15:52:31,346][INFO ][o.e.p.PluginsService     ] [wsI3wue] loaded module [lang-mustache]
[2017-10-15T15:52:31,347][INFO ][o.e.p.PluginsService     ] [wsI3wue] loaded module [lang-painless]
[2017-10-15T15:52:31,347][INFO ][o.e.p.PluginsService     ] [wsI3wue] loaded module [parent-join]
[2017-10-15T15:52:31,348][INFO ][o.e.p.PluginsService     ] [wsI3wue] loaded module [percolator]
[2017-10-15T15:52:31,349][INFO ][o.e.p.PluginsService     ] [wsI3wue] loaded module [reindex]
[2017-10-15T15:52:31,355][INFO ][o.e.p.PluginsService     ] [wsI3wue] loaded module [transport-netty3]
[2017-10-15T15:52:31,356][INFO ][o.e.p.PluginsService     ] [wsI3wue] loaded module [transport-netty4]
[2017-10-15T15:52:31,357][INFO ][o.e.p.PluginsService     ] [wsI3wue] no plugins loaded
[2017-10-15T15:52:35,609][INFO ][o.e.d.DiscoveryModule    ] [wsI3wue] using discovery type [zen]
[2017-10-15T15:52:36,591][INFO ][o.e.n.Node               ] initialized
[2017-10-15T15:52:36,591][INFO ][o.e.n.Node               ] [wsI3wue] starting ...
[2017-10-15T15:52:37,967][INFO ][o.e.t.TransportService   ] [wsI3wue] publish_address {127.0.0.1:9300}, bound_addresses {127.0.0.1:9300}, {[::1]:9300}
[2017-10-15T15:52:41,123][INFO ][o.e.c.s.ClusterService   ] [wsI3wue] new_master {wsI3wue}{wsI3wueBTde8nDwh6uKV8w}{c3Qtjv8rRDOGJtVWKr0aBA}{127.0.0.1}{127.0.0.1:9300}, reason: zen-disco-elected-as-master ([0] nodes joined)
[2017-10-15T15:52:41,454][INFO ][o.e.g.GatewayService     ] [wsI3wue] recovered [0] indices into cluster_state
[2017-10-15T15:52:41,578][INFO ][o.e.h.n.Netty4HttpServerTransport] [wsI3wue] publish_address {127.0.0.1:9200}, bound_addresses {127.0.0.1:9200}, {[::1]:9200}
[2017-10-15T15:52:41,579][INFO ][o.e.n.Node               ] [wsI3wue] started
[2017-10-15T16:17:23,539][INFO ][o.e.c.m.MetaDataCreateIndexService] [wsI3wue] [.kibana] creating index, cause [api], templates [], shards [1]/[1], mappings [_default_, index-pattern, server, visualization, search, timelion-sheet, config, dashboard, url]
[2017-10-15T17:01:31,833][INFO ][o.e.b.Bootstrap          ] running graceful exit on windows
[2017-10-15T17:01:31,836][INFO ][o.e.n.Node               ] [wsI3wue] stopping ...
[2017-10-15T17:01:31,891][INFO ][o.e.n.Node               ] [wsI3wue] stopped
[2017-10-15T17:01:31,892][INFO ][o.e.n.Node               ] [wsI3wue] closing ...
[2017-10-15T17:01:31,905][INFO ][o.e.n.Node               ] [wsI3wue] closed
